[gd_scene load_steps=3 format=2]

[ext_resource path="res://assets/SCOREFONT/batmfa__.ttf" type="DynamicFontData" id=1]

[sub_resource type="DynamicFont" id=1]
size = 15
font_data = ExtResource( 1 )

[node name="CanvasLayer" type="CanvasLayer"]

[node name="Label" type="Label" parent="."]
margin_left = 37.3333
margin_top = 10.6667
margin_right = 77.3333
margin_bottom = 25.6667
rect_scale = Vector2( 8.81356, 8.81356 )
custom_fonts/font = SubResource( 1 )
